7281 8 0 8
7282 1 0 1
7282 0 0 0
7282 0 0 0
7282 0 0 0
7282 0 0 0
7282 0 0 0
7282 0 0 0
7282 0 0 0
7282 0 0 0
7282 0 0 0
7282 0 0 0
7282 0 0 0
7283 1 0 1
7283 0 0 0
7283 0 0 0
7283 0 0 0
7283 0 0 0
7283 0 0 0
7283 0 0 0
7283 0 0 0
7283 0 0 0
7284 1 0 1
7284 0 0 0
7284 0 0 0
7284 0 0 0
7284 0 0 0
7284 0 0 0
7284 0 0 0
7284 0 0 0
7286 2 0 2
7286 0 0 0
7286 0 0 0
7286 0 0 0
7286 0 0 0
7286 0 0 0
7286 0 0 0
7286 0 0 0
7286 0 0 0
7287 1 0 1
7287 0 0 0
7287 0 0 0
7287 0 0 0
7287 0 0 0
7287 0 0 0
7287 0 0 0
7287 0 0 0
7287 0 0 0
7287 0 0 0
7287 0 0 0
7287 0 0 0
7287 0 0 0
7287 0 0 0
7288 1 0 1
7288 0 0 0
7288 0 0 0
7288 0 0 0
7288 0 0 0
7288 0 0 0
7288 0 0 0
7288 0 0 0
7288 0 0 0
7288 0 0 0
7288 0 0 0
7288 0 0 0
7288 0 0 0
7288 0 0 0
7288 0 0 0
7289 1 0 1
7289 0 0 0
7289 0 0 0
7289 0 0 0
7289 0 0 0
7289 0 0 0
7289 0 0 0
7289 0 0 0
7289 0 0 0
7289 0 0 0
7289 0 0 0
7289 0 0 0
7289 0 0 0
7289 0 0 0
7289 0 0 0
7289 0 0 0
7290 1 0 1
7290 0 0 0
7290 0 0 0
7290 0 0 0
7290 0 0 0
7290 0 0 0
7290 0 0 0
7290 0 0 0
7290 0 0 0
7290 0 0 0
7290 0 0 0
7290 0 0 0
7290 0 0 0
7290 0 0 0
7290 0 0 0
7291 1 0 1
